Introduction to R
…
is the closing price of 3 stocks X, Y and Z at the end of each day from 2009-1-1 to 2009-1-10. If we wanted them to be long such that there was 3 rows for each time, a column that indicates the stock and a column that indicates the closing price, we would use gather(). gather() typically takes 4 arguments: data is the name of the tibble to perform the operation on, key is the name to use for the column that will become the key, value is the name to use for the column that will hold the value then a comma separated list of variables to include (or prefix with a - sign to exclude). For the stocks example

stocks_wide <- gather(stocks, stock, closing_price, -time)
stocks_wide

## # A tibble: 30 x 3
##          time stock closing_price
##        <date> <chr>         <dbl>
##  1 2009-01-01     X    -0.2318792
##  2 2009-01-02     X    -1.1990562
##  3 2009-01-03     X    -3.0165659
##  4 2009-01-04     X     0.3180617
##  5 2009-01-05     X    -0.2068513
##  6 2009-01-06     X    -0.7756782
##  7 2009-01-07     X     0.7408788
##  8 2009-01-08     X    -0.5918666
##  9 2009-01-09     X    -0.4918802
## 10 2009-01-10     X    -0.7043410
## # ... with 20 more rows
…
arrange()

group_by() (this might actually be an adverb)

Well go through what each function does and how to use it using the nycflights13 data sets as an example.

select()

Select does what it says - it selects things. You give it the name of a data object and then a comma separated list of variables and it returns the data object with only those variables.

Lets start with the airports table

airports

## # A tibble: 1,458 x 8
##      faa                           name      lat        lon   alt    tz
##    <chr>                          <chr>    <dbl>      <dbl> <int> <int>
##  1   04G              Lansdowne Airport 41.13047  -80.61958  1044    -5
##  2   06A  Moton Field Municipal Airport 32.46057  -85.68003   264    -6
##  3   06C            Schaumburg Regional 41.98934  -88.10124   801    -6
##  4   06N                Randall Airport 41.43191  -74.39156   523    -5
##  5   09J          Jekyll Island Airport 31.07447  -81.42778    11    -5
##  6   0A9 Elizabethton Municipal Airport 36.37122  -82.17342  1593    -5
##  7   0G6        Williams County Airport 41.46731  -84.50678   730    -5
##  8   0G7  Finger Lakes Regional Airport 42.88356  -76.78123   492    -5
##  9   0P2   Shoestring Aviation Airfield 39.79482  -76.64719  1000    -5
## 10   0S9          Jefferson County Intl 48.05381 -122.81064   108    -8
## # ... with 1,448 more rows, and 2 more variables: dst <chr>, tzone <chr>

We might only want the air_time (flight time) and distance in our dataset. The rest of the variables are just taking up space. We can use select() to do that for us

select(airports, faa, lat, lon)

## # A tibble: 1,458 x 3
##      faa      lat        lon
##    <chr>    <dbl>      <dbl>
##  1   04G 41.13047  -80.61958
##  2   06A 32.46057  -85.68003
##  3   06C 41.98934  -88.10124
##  4   06N 41.43191  -74.39156
##  5   09J 31.07447  -81.42778
##  6   0A9 36.37122  -82.17342
##  7   0G6 41.46731  -84.50678
##  8   0G7 42.88356  -76.78123
##  9   0P2 39.79482  -76.64719
## 10   0S9 48.05381 -122.81064
## # ... with 1,448 more rows

We can also exclude specific variables by putting a - in front of the variable name

select(airports, -faa)

## # A tibble: 1,458 x 7
##                              name      lat        lon   alt    tz   dst
##                             <chr>    <dbl>      <dbl> <int> <int> <chr>
##  1              Lansdowne Airport 41.13047  -80.61958  1044    -5     A
##  2  Moton Field Municipal Airport 32.46057  -85.68003   264    -6     A
##  3            Schaumburg Regional 41.98934  -88.10124   801    -6     A
##  4                Randall Airport 41.43191  -74.39156   523    -5     A
##  5          Jekyll Island Airport 31.07447  -81.42778    11    -5     A
##  6 Elizabethton Municipal Airport 36.37122  -82.17342  1593    -5     A
##  7        Williams County Airport 41.46731  -84.50678   730    -5     A
##  8  Finger Lakes Regional Airport 42.88356  -76.78123   492    -5     A
##  9   Shoestring Aviation Airfield 39.79482  -76.64719  1000    -5     U
## 10          Jefferson County Intl 48.05381 -122.81064   108    -8     A
## # ... with 1,448 more rows, and 1 more variables: tzone <chr>
…
contains(match) - returns any variables that contain the value match

Exercises

Arrange the data by the distance covered by the flight

filter()

filter() filters things. It takes as a first argument the name of the data object (a tibble or data.frame) to filter and then a series of comma separated expressions that evaluate to logical TRUE/FALSE statements about a given row.

The flights table is a good place to try this:

flights

## # A tibble: 336,776 x 19
##     year month   day dep_time sched_dep_time dep_delay arr_time
##    <int> <int> <int>    <int>          <int>     <int>    <int>
##  1  2013     1     1      517            515         2      830
##  2  2013     1     1      533            529         4      850
##  3  2013     1     1      542            540         2      923
##  4  2013     1     1      544            545        -1     1004
##  5  2013     1     1      554            600        -6      812
##  6  2013     1     1      554            558        -4      740
##  7  2013     1     1      555            600        -5      913
##  8  2013     1     1      557            600        -3      709
##  9  2013     1     1      557            600        -3      838
## 10  2013     1     1      558            600        -2      753
## # ... with 336,766 more rows, and 12 more variables: sched_arr_time <int>,
## #   arr_delay <int>, carrier <chr>, flight <int>, tailnum <chr>,
## #   origin <chr>, dest <chr>, air_time <int>, distance <int>, hour <int>,
## #   minute <int>, time_hour <dttm>

Suppose we wanted to find it any flight from NYC went to Des Moines airport in 2013. The expression would test if dest == "DSM". So

filter(flights, dest == "DSM")

## # A tibble: 569 x 19
##     year month   day dep_time sched_dep_time dep_delay arr_time
##    <int> <int> <int>    <int>          <int>     <int>    <int>
##  1  2013     1     1     2119           1930       109     2358
##  2  2013     1     2     1921           1909        12     2143
##  3  2013     1     3     1938           1905        33     2136
##  4  2013     1     4     1907           1905         2     2108
##  5  2013     1     6     1904           1910        -6     2111
##  6  2013     1     7     1903           1905        -2     2059
##  7  2013     1     8     1901           1905        -4     2119
##  8  2013     1     9     2006           1905        61     2231
##  9  2013     1    10     1858           1905        -7     2059
## 10  2013     1    11     1858           1905        -7     2125
## # ... with 559 more rows, and 12 more variables: sched_arr_time <int>,
## #   arr_delay <int>, carrier <chr>, flight <int>, tailnum <chr>,
## #   origin <chr>, dest <chr>, air_time <int>, distance <int>, hour <int>,
## #   minute <int>, time_hour <dttm>

Suppose we wanted multiple filtering rules, we can string them together with commas and filter() understands that as AND. So filter(data, x, y) means return rows in data where both x AND y are true.

filter(flights, year == 2013, month == 1, day == 1)

## # A tibble: 842 x 19
##     year month   day dep_time sched_dep_time dep_delay arr_time
##    <int> <int> <int>    <int>          <int>     <int>    <int>
##  1  2013     1     1      517            515         2      830
##  2  2013     1     1      533            529         4      850
##  3  2013     1     1      542            540         2      923
##  4  2013     1     1      544            545        -1     1004
##  5  2013     1     1      554            600        -6      812
##  6  2013     1     1      554            558        -4      740
##  7  2013     1     1      555            600        -5      913
##  8  2013     1     1      557            600        -3      709
##  9  2013     1     1      557            600        -3      838
## 10  2013     1     1      558            600        -2      753
## # ... with 832 more rows, and 12 more variables: sched_arr_time <int>,
## #   arr_delay <int>, carrier <chr>, flight <int>, tailnum <chr>,
## #   origin <chr>, dest <chr>, air_time <int>, distance <int>, hour <int>,
## #   minute <int>, time_hour <dttm>

You can join using OR as well. In R, the logical operator OR is expressed as |. For instance, if I want to find flights that left either more than 5 minutes before or 5 minutes after their scheduled time, I would run

filter(flights, (dep_time - sched_dep_time) >= 5 | (dep_time - sched_dep_time) <= -5)

## # A tibble: 217,411 x 19
##     year month   day dep_time sched_dep_time dep_delay arr_time
##    <int> <int> <int>    <int>          <int>     <int>    <int>
##  1  2013     1     1      554            600        -6      812
##  2  2013     1     1      555            600        -5      913
##  3  2013     1     1      557            600        -3      709
##  4  2013     1     1      557            600        -3      838
##  5  2013     1     1      558            600        -2      753
##  6  2013     1     1      558            600        -2      849
##  7  2013     1     1      558            600        -2      853
##  8  2013     1     1      558            600        -2      924
##  9  2013     1     1      558            600        -2      923
## 10  2013     1     1      559            600        -1      941
## # ... with 217,401 more rows, and 12 more variables: sched_arr_time <int>,
## #   arr_delay <int>, carrier <chr>, flight <int>, tailnum <chr>,
## #   origin <chr>, dest <chr>, air_time <int>, distance <int>, hour <int>,
## #   minute <int>, time_hour <dttm>
…
Delayed in leaving by at least 1 hour but made up 30 hours in flight

mutate()

mutate is used to add new variables to a tibble. As with the other verbs so far, the first argument is the name of the tibble to mutate followed by a comma separated list of variables and the values to assign to those variables. The assignment is done in the form variable_name = value.

The flights table contains information about the flight time and distance but does not include the speed. We could combine the air time and the distance to estimate speed. Lets do that:

flights <- mutate(flights, speed = distance / (air_time / 60))

And now if we view flights, well see a new variable called speed:

select(flights, distance, air_time, speed)

## # A tibble: 336,776 x 3
##    distance air_time    speed
##       <int>    <int>    <dbl>
##  1     1400      227 370.0441
##  2     1416      227 374.2731
##  3     1089      160 408.3750
##  4     1576      183 516.7213
##  5      762      116 394.1379
##  6      719      150 287.6000
##  7     1065      158 404.4304
##  8      229       53 259.2453
##  9      944      140 404.5714
## 10      733      138 318.6957
## # ... with 336,766 more rows

Multiple variables can be constructed inside a single mutate() call:

flights <- mutate(flights,
       dep_delay = dep_time - sched_dep_time,
       arr_delay = arr_time - sched_arr_time)
select(flights, dep_delay, arr_delay)

## # A tibble: 336,776 x 2
##    dep_delay arr_delay
##        <int>     <int>
##  1         2        11
##  2         4        20
##  3         2        73
##  4        -1       -18
##  5       -46       -25
##  6        -4        12
##  7       -45        59
##  8       -43       -14
##  9       -43        -8
## 10       -42         8
## # ... with 336,766 more rows
…
## # A tibble: 1 x 2
##   mean_arrival_delay sd_arrival_delay
##                <dbl>            <dbl>
## 1          -30.85636         336.6009

The average flight arrives 6.9 minutes late with a standard deviation of 44.6 minutes.

arrange()

arrange() is used to order data by a variable in the data. For instance, if we wanted to order the flights table by the the departure time, we would run

arrange(flights, dep_time)

## # A tibble: 336,776 x 20
##     year month   day dep_time sched_dep_time dep_delay arr_time
##    <int> <int> <int>    <int>          <int>     <int>    <int>
##  1  2013     1    13        1           2249     -2248      108
##  2  2013     1    31        1           2100     -2099      124
##  3  2013    11    13        1           2359     -2358      442
##  4  2013    12    16        1           2359     -2358      447
##  5  2013    12    20        1           2359     -2358      430
##  6  2013    12    26        1           2359     -2358      437
##  7  2013    12    30        1           2359     -2358      441
##  8  2013     2    11        1           2100     -2099      111
##  9  2013     2    24        1           2245     -2244      121
## 10  2013     3     8        1           2355     -2354      431
## # ... with 336,766 more rows, and 13 more variables: sched_arr_time <int>,
## #   arr_delay <int>, carrier <chr>, flight <int>, tailnum <chr>,
## #   origin <chr>, dest <chr>, air_time <int>, distance <int>, hour <int>,
## #   minute <int>, time_hour <dttm>, speed <dbl>

and we get a bunch of flights that left at 00:01.

group_by()

The major value of dplyr comes with the group_by function when combined with the prior verbs. group_by modifies the prior verbs so that they operate on a group basis. For instance, if we wanted the mean arrival delay by airline,

flights <- group_by(flights, carrier)

Youll notice that flights doesnt look much different if you print it

flights

## # A tibble: 336,776 x 20
## # Groups:   carrier [16]
##     year month   day dep_time sched_dep_time dep_delay arr_time
##    <int> <int> <int>    <int>          <int>     <int>    <int>
##  1  2013     1     1      517            515         2      830
##  2  2013     1     1      533            529         4      850
##  3  2013     1     1      542            540         2      923
##  4  2013     1     1      544            545        -1     1004
##  5  2013     1     1      554            600       -46      812
##  6  2013     1     1      554            558        -4      740
##  7  2013     1     1      555            600       -45      913
##  8  2013     1     1      557            600       -43      709
##  9  2013     1     1      557            600       -43      838
## 10  2013     1     1      558            600       -42      753
## # ... with 336,766 more rows, and 13 more variables: sched_arr_time <int>,
## #   arr_delay <int>, carrier <chr>, flight <int>, tailnum <chr>,
## #   origin <chr>, dest <chr>, air_time <int>, distance <int>, hour <int>,
## #   minute <int>, time_hour <dttm>, speed <dbl>
…
We can also group by several variables. For instance, maybe flights to one airport are more delayed than others and there is also a carrier effect. We would want to group both by carrier and by destination airport:

flights <- group_by(flights, carrier, dest)
summarize(flights, mean_arrival_delay = mean(arr_delay, na.rm = TRUE))

## # A tibble: 314 x 3
## # Groups:   carrier [?]
##    carrier  dest mean_arrival_delay
##      <chr> <chr>              <dbl>
##  1      9E   ATL          14.428571
##  2      9E   AUS         -23.500000
##  3      9E   AVL         -12.100000
##  4      9E   BGR                NaN
##  5      9E   BNA          23.887168
##  6      9E   BOS          -4.182884
##  7      9E   BTV          -2.500000
##  8      9E   BUF          -3.353165
##  9      9E   BWI         -21.568627
## 10      9E   CAE          19.333333
## # ... with 304 more rows

Earlier in the filter() examples, we used filter() to find the furthest distance a flight covered. We could do the same trick with filter() and group_by() to find the longest-distance flight on each carrier.

flights <- group_by(flights, carrier)
filter(flights, distance == max(distance))

## # A tibble: 12,793 x 20
## # Groups:   carrier [16]
##     year month   day dep_time sched_dep_time dep_delay arr_time
##    <int> <int> <int>    <int>          <int>     <int>    <int>
##  1  2013     1     1      627            630        -3     1018
##  2  2013     1     1      655            700       -45     1037
##  3  2013     1     1      656            705       -49     1007
##  4  2013     1     1      724            725        -1     1020
##  5  2013     1     1      729            730        -1     1049
##  6  2013     1     1      734            737        -3     1047
##  7  2013     1     1      745            745         0     1135
##  8  2013     1     1      814            810         4     1047
##  9  2013     1     1      833            835        -2     1134
## 10  2013     1     1      857            900       -43     1516
## # ... with 12,783 more rows, and 13 more variables: sched_arr_time <int>,
## #   arr_delay <int>, carrier <chr>, flight <int>, tailnum <chr>,
## #   origin <chr>, dest <chr>, air_time <int>, distance <int>, hour <int>,
## #   minute <int>, time_hour <dttm>, speed <dbl>
…
The summary(model) says that a flight that leaves on time arrives about 6 minutes earlier that scheduled and that for each minute that the flight is delayed compared to the scheduled departure time there is a 1.02 minute delay on arrival.

Functional Programming (Probably Wont Get to)

For more detail see R for Data Science Chapter 25.

One of the most powerful things about the tidyverse is the ability do construct list-columns inside a tibble. There look like and behave like normal columns but instead of containing an atomic value, they contain a tibble. You construct these with the nest() command and the nesting is done by the groups of the tibble. For instance, if I wanted to nest the data by airline and airport, I would

nested_flights <- flights %>%
  group_by(carrier, origin) %>% 
  nest()
nested_flights

## # A tibble: 35 x 3
##    carrier origin                   data
##      <chr>  <chr>                 <list>
##  1      UA    EWR <tibble [46,087 x 18]>
##  2      UA    LGA  <tibble [8,044 x 18]>
##  3      AA    JFK <tibble [13,783 x 18]>
##  4      B6    JFK <tibble [42,076 x 18]>
##  5      DL    LGA <tibble [23,067 x 18]>
##  6      B6    EWR  <tibble [6,557 x 18]>
##  7      EV    LGA  <tibble [8,826 x 18]>
##  8      AA    LGA <tibble [15,459 x 18]>
##  9      UA    JFK  <tibble [4,534 x 18]>
## 10      B6    LGA  <tibble [6,002 x 18]>
## # ... with 25 more rows
…
number_of_flights <- flights %>%
  group_by(origin, year, month, day, hour) %>%
  summarize(number_of_flights_hour = n())

model_data <- inner_join(weather_and_time, number_of_flights) %>%
    mutate(day_of_week = as.factor(lubridate::wday(lubridate::ymd(paste(year, month, day)))),
         month = as.factor(month)) %>%
  select(-year, -day)

## Joining, by = c("origin", "year", "month", "day", "hour")

model_data

## # A tibble: 139,029 x 9
##    carrier origin dep_delay  month  hour wind_speed distance
##      <chr>  <chr>     <int> <fctr> <int>      <dbl>    <int>
##  1      DL    LGA       -46      1     6   13.80936      762
##  2      B6    EWR       -45      1     6   10.35702     1065
##  3      EV    LGA       -43      1     6   13.80936      229
##  4      B6    JFK       -43      1     6   12.65858      944
##  5      AA    LGA       -42      1     6   13.80936      733
##  6      B6    JFK       -42      1     6   12.65858     1028
##  7      B6    JFK       -42      1     6   12.65858     1005
##  8      UA    JFK       -42      1     6   12.65858     2475
##  9      UA    EWR       -42      1     6   10.35702     2565
## 10      AA    LGA       -41      1     6   13.80936     1389
## # ... with 139,019 more rows, and 2 more variables:
## #   number_of_flights_hour <int>, day_of_week <fctr>
…
